<svg width="26" height="22" viewBox="0 0 26 22" fill="none" xmlns="http://www.w3.org/2000/svg">
<path d="M23.3813 20.562H2.54801C1.62801 20.562 0.881348 19.7441 0.881348 18.7364V3.21846C0.881348 2.21071 1.62801 1.39282 2.54801 1.39282H23.3813C24.3013 1.39282 25.048 2.21071 25.048 3.21846V18.7364C25.048 19.7441 24.3013 20.562 23.3813 20.562Z" fill="white"/>
<path d="M24.3315 4.56277L12.9649 13.0815L1.5982 4.56277C1.51653 4.50069 1.4457 4.42493 1.3757 4.34825H1.36487L16.1274 20.5203H23.4007C24.3074 20.5203 25.049 19.7078 25.049 18.7156V3.073C25.0482 3.69191 24.764 4.23779 24.3315 4.56277Z" fill="#ECEFF1"/>
<path d="M25.0482 2.76172V18.7747C25.0482 19.7624 24.3174 20.562 23.4166 20.562H22.1316V2.76172H25.0482Z" fill="#FF8A80"/>
<path d="M0.881348 2.76172V18.7747C0.881348 19.7624 1.61218 20.562 2.51301 20.562H3.798V2.76172H0.881348Z" fill="#FF8A80"/>
<path d="M23.3997 1.26953L12.9647 9.0907L2.52968 1.26953C1.62301 1.26953 0.881348 2.08195 0.881348 3.0742C0.881348 3.69219 1.16551 4.23807 1.59801 4.56304L12.9647 13.0825L24.3313 4.56304C24.7638 4.23807 25.048 3.69219 25.048 3.0742C25.048 2.08195 24.3063 1.26953 23.3997 1.26953Z" fill="#FF8A80"/>
<path d="M23.3815 21.0188H2.54818C1.39984 21.0188 0.464844 19.9946 0.464844 18.7367V3.21838C0.464844 2.96644 0.65151 2.76196 0.88151 2.76196C1.11151 2.76196 1.29818 2.96644 1.29818 3.21838V18.7367C1.29818 19.4916 1.85901 20.106 2.54818 20.106H23.3815C24.0707 20.106 24.6315 19.4916 24.6315 18.7367V3.21838C24.6315 2.46346 24.0707 1.84912 23.3815 1.84912C23.1515 1.84912 22.9648 1.64464 22.9648 1.3927C22.9648 1.14076 23.1515 0.936279 23.3815 0.936279C24.5298 0.936279 25.4648 1.96049 25.4648 3.21838V18.7367C25.4648 19.9946 24.5298 21.0188 23.3815 21.0188Z" fill="#00040D"/>
<path d="M12.9648 13.7161C12.8823 13.7161 12.7998 13.6896 12.7282 13.6357L1.35318 5.04224C0.79651 4.62233 0.464844 3.92857 0.464844 3.18826C0.464844 1.9468 1.38734 0.936279 2.52068 0.936279H23.4082C24.5423 0.936279 25.4648 1.9468 25.4648 3.18826C25.4648 3.92857 25.1332 4.62142 24.5765 5.04224L13.2015 13.6357C13.1298 13.6896 13.0473 13.7161 12.9648 13.7161ZM2.52068 1.84912C1.84651 1.84912 1.29818 2.44977 1.29818 3.18826C1.29818 3.62916 1.49568 4.04085 1.82651 4.29097L12.9648 12.7055L24.1032 4.29097C24.434 4.04085 24.6315 3.62916 24.6315 3.18826C24.6315 2.44977 24.0832 1.84912 23.409 1.84912H2.52068Z" fill="#00040D"/>
</svg>
