<svg width="45" height="82" viewBox="0 0 45 82" fill="none" xmlns="http://www.w3.org/2000/svg">
<path d="M41.217 37.2184C41.217 36.3465 41.9837 35.6373 42.9261 35.6373C43.8699 35.6373 44.6353 34.9294 44.6353 34.0562C44.6353 33.1829 43.8699 32.4751 42.9261 32.4751H38.5974C40.2248 30.7953 41.217 28.5784 41.217 26.1507C41.217 23.2961 39.8562 20.6479 37.5215 18.8558C37.7051 18.1411 37.7987 17.4079 37.7987 16.664C37.7987 13.9376 36.5193 11.3507 34.334 9.55999C34.363 9.29421 34.3804 9.02669 34.3804 8.75853C34.3804 4.39944 30.5469 0.853027 25.8348 0.853027C25.0421 0.853027 24.3535 1.35708 24.1714 2.07079C23.9893 2.7845 24.3615 3.52035 25.0706 3.84827C25.7204 4.14883 26.1482 4.72356 26.2256 5.38035C25.8667 6.33613 25.4665 7.17743 24.2863 7.17743H18.9982C14.2861 7.17743 10.4526 10.7238 10.4526 15.0829V16.8283C8.27273 18.8891 7.03429 21.6698 7.03429 24.5695V26.3151C5.25474 27.9974 4.10518 30.1595 3.74267 32.4751H1.90689C0.962933 32.4751 0.197754 33.1829 0.197754 34.0562C0.197754 34.9294 0.962933 35.6373 1.90689 35.6373C2.84931 35.6373 3.61602 36.3465 3.61602 37.2184C3.61602 40.2644 5.52427 43.0294 8.44416 44.3365C8.98612 45.9334 20.2427 79.0978 20.7858 80.698C21.0097 81.357 21.67 81.8054 22.4165 81.8054C23.1632 81.8054 23.8235 81.357 24.0472 80.6979L36.3887 44.3366C39.3087 43.0295 41.217 40.2644 41.217 37.2184ZM28.3775 57.3837L19.3042 65.7773L18.1493 62.375L30.5894 50.8667L28.3775 57.3837ZM12.2943 45.1239H22.2965L14.6844 52.1658L12.2943 45.1239ZM15.8394 55.5693L27.1308 45.1239H31.9632L16.9943 58.9715L15.8394 55.5693ZM27.5439 22.9884H15.58C13.7973 22.9884 12.0573 23.357 10.4734 24.0487C10.7703 19.9062 14.4812 16.664 18.9982 16.664H25.8348C28.8584 16.664 31.5559 15.2221 33.0803 12.9619C33.9123 14.0277 34.3804 15.3203 34.3804 16.664C34.3804 20.1902 31.2623 22.9884 27.5439 22.9884ZM18.9982 10.3396H24.2863C26.2605 10.3396 28.0813 9.27302 28.9252 7.62188C29.3339 6.82153 29.5619 6.12157 29.5865 6.04426C29.6326 5.89974 29.6561 5.75017 29.6564 5.59949C30.4679 6.4389 30.9622 7.54646 30.9622 8.75853C30.9622 11.3732 28.6969 13.5018 25.8348 13.5018H18.9982C17.2201 13.5018 15.4832 13.8663 13.9024 14.5547C14.1874 12.1868 16.3639 10.3396 18.9982 10.3396ZM6.74032 35.6373H11.3071C12.2511 35.6373 13.0163 34.9294 13.0163 34.0562C13.0163 33.1829 12.2511 32.4751 11.3071 32.4751H7.20931C8.02286 28.7993 11.5078 26.1507 15.58 26.1507H27.5439C30.9897 26.1507 34.1839 24.5204 36.0631 21.9397C37.1691 23.0832 37.7987 24.5686 37.7987 26.1507C37.7987 29.6379 34.7318 32.4751 30.9622 32.4751H26.6893C25.7456 32.4751 24.9802 33.1829 24.9802 34.0562C24.9802 34.9294 25.7456 35.6373 26.6893 35.6357H38.0927C37.903 36.1321 37.7987 36.664 37.7987 37.2184C37.7987 39.7976 35.5403 41.9617 32.6713 41.9617H12.1617C9.29684 41.9617 7.03429 39.8009 7.03429 37.2184C7.03429 36.664 6.93003 36.1321 6.74032 35.6373ZM22.4163 74.9468L20.4594 69.181L26.1648 63.9029L22.4163 74.9468Z" fill="#00040D"/>
<path d="M18.9982 35.6367C19.9421 35.6367 20.7073 34.929 20.7073 34.056C20.7073 33.183 19.9421 32.4753 18.9982 32.4753C18.0543 32.4753 17.2891 33.183 17.2891 34.056C17.2891 34.929 18.0543 35.6367 18.9982 35.6367Z" fill="#00040D"/>
</svg>
