<svg width="77" height="86" viewBox="0 0 77 86" fill="none" xmlns="http://www.w3.org/2000/svg">
<path d="M8.25293 31.3623C8.25293 45.2622 21.7103 56.5703 38.2519 56.5703C54.7935 56.5703 68.2509 45.2622 68.2509 31.3623C68.2509 17.4625 54.7935 6.1543 38.2519 6.1543C21.7103 6.1543 8.25293 17.4625 8.25293 31.3623ZM38.2519 9.51536C52.5881 9.51536 64.251 19.3156 64.251 31.3623C64.251 43.409 52.5881 53.2092 38.2519 53.2092C23.9157 53.2092 12.2528 43.409 12.2528 31.3623C12.2528 19.3156 23.9157 9.51536 38.2519 9.51536Z" fill="#00040D"/>
<path d="M19.7307 28.3661L27.4828 34.7843L25.6992 43.8047C25.575 44.4329 25.8836 45.0657 26.4969 45.4399C27.1093 45.8141 27.921 45.8646 28.5937 45.5719L38.2519 41.3574L47.9094 45.5719C48.5766 45.8627 49.3883 45.8174 50.0062 45.4399C50.6195 45.0657 50.9281 44.4329 50.8038 43.8047L49.0203 34.7843L56.7724 28.3661C57.3122 27.9197 57.5052 27.2554 57.2708 26.6494C57.0364 26.0442 56.4154 25.6024 55.6662 25.5072L44.9079 24.1464L40.0401 15.9662C39.7019 15.3971 39.0089 15.0374 38.2519 15.0374C37.4941 15.0374 36.802 15.3971 36.4629 15.9662L31.5951 24.1464L20.8369 25.5072C20.0877 25.6017 19.4666 26.0442 19.2323 26.6494C18.9979 27.2554 19.1917 27.9197 19.7307 28.3661ZM33.2177 27.34C33.8615 27.2586 34.4177 26.9193 34.7091 26.4302L38.2519 20.4755L41.7948 26.4302C42.0862 26.9193 42.6424 27.2586 43.2861 27.34L51.1163 28.3306L45.4736 33.0013C45.0103 33.3854 44.7978 33.9348 44.904 34.4744L46.2024 41.0397L39.173 37.9727C38.8847 37.8467 38.5683 37.7836 38.2519 37.7836C37.9355 37.7836 37.6191 37.8467 37.3301 37.9727L30.3006 41.0397L31.599 34.4744C31.7061 33.9348 31.4936 33.3854 31.0295 33.0013L25.3875 28.3306L33.2177 27.34Z" fill="#00040D"/>
<path d="M28.8266 0.422817C12.003 4.03137 0.253418 16.7542 0.253418 31.3624C0.253418 40.4353 4.7931 48.9843 12.7624 55.0389L0.713558 72.882C0.326072 73.4565 0.374508 74.1681 0.836992 74.7011C1.29948 75.2348 2.09007 75.4915 2.85958 75.3569L16.5427 72.9694L21.3519 84.3569C21.6128 84.9766 22.2808 85.4106 23.0604 85.469C23.8401 85.5274 24.5877 85.1972 24.9744 84.6254L38.2521 65.0105L51.529 84.6254C51.8868 85.1539 52.5524 85.4749 53.2664 85.4749C53.325 85.4749 53.3844 85.4729 53.443 85.469C54.2226 85.4106 54.8906 84.976 55.1523 84.3569L59.9607 72.9694L73.6438 75.3569C74.4126 75.4908 75.2039 75.2341 75.6664 74.7011C76.1297 74.1681 76.1774 73.4565 75.7899 72.882L63.7411 55.0389C71.7103 48.9843 76.25 40.4353 76.25 31.3624C76.25 16.7542 64.5004 4.03137 47.6776 0.422817C46.6065 0.193056 45.5183 0.735948 45.2448 1.6353C44.9714 2.53464 45.6175 3.44975 46.6877 3.67951C61.7388 6.90797 72.2509 18.2916 72.2509 31.3624C72.2509 47.2703 56.8757 59.9314 38.2521 59.9314C19.6152 59.9314 4.25328 47.2598 4.25328 31.3624C4.25328 18.2916 14.7646 6.90797 29.8157 3.67951C30.886 3.44975 31.532 2.53464 31.2594 1.6353C30.9859 0.735948 29.8977 0.193056 28.8266 0.422817ZM23.6596 79.7709L19.7293 70.4643C19.3949 69.6726 18.4169 69.2098 17.438 69.3805L6.37352 71.3111L15.9091 57.1894C21.4691 60.5859 28.0525 62.6551 34.8983 63.1671L23.6596 79.7709ZM59.0654 69.3805C58.0874 69.2098 57.1085 69.6726 56.7741 70.4643L52.8446 79.7709L41.6051 63.1671C48.4517 62.6551 55.0343 60.5859 60.5951 57.1894L70.1307 71.3111L59.0654 69.3805Z" fill="#00040D"/>
</svg>
